<?xml version="1.0" encoding="utf-8"?>
<!-- Generator: Adobe Illustrator 21.1.0, SVG Export Plug-In . SVG Version: 6.00 Build 0)  -->
<svg version="1.1" id="Capa_1" xmlns="http://www.w3.org/2000/svg" xmlns:xlink="http://www.w3.org/1999/xlink" x="0px" y="0px"
	 viewBox="0 0 105.1 105.5" style="enable-background:new 0 0 105.1 105.5;" xml:space="preserve">
<style type="text/css">
	.st0{fill:#E7EBEE;}
	.st1{fill:#FFFFFF;}
</style>
<circle class="st0" cx="52.6" cy="52.9" r="52.6"/>
<g>
	<g>
		<g>
			<path class="st1" d="M81.7,31c-1-1-2.2-1.5-3.6-1.5h-51c-1.4,0-2.6,0.5-3.6,1.5c-1,1-1.5,2.2-1.5,3.6v38.8c0,1.4,0.5,2.6,1.5,3.6
				c1,1,2.2,1.5,3.6,1.5h51c1.4,0,2.6-0.5,3.6-1.5c1-1,1.5-2.2,1.5-3.6V34.6C83.2,33.2,82.7,32,81.7,31z M79.1,73.4
				c0,0.3-0.1,0.5-0.3,0.7c-0.2,0.2-0.4,0.3-0.7,0.3h-51c-0.3,0-0.5-0.1-0.7-0.3c-0.2-0.2-0.3-0.4-0.3-0.7V54h53L79.1,73.4
				L79.1,73.4z M79.1,41.8H26v-7.1c0-0.3,0.1-0.5,0.3-0.7c0.2-0.2,0.4-0.3,0.7-0.3h51c0.3,0,0.5,0.1,0.7,0.3
				c0.2,0.2,0.3,0.4,0.3,0.7L79.1,41.8L79.1,41.8z"/>
			<path class="st1" d="M54.6,67.2v2.2c0,0.5-0.4,0.9-0.9,0.9H31.1c-0.5,0-0.9-0.4-0.9-0.9v-2.2c0-0.5,0.4-0.9,0.9-0.9h22.6
				C54.2,66.3,54.6,66.7,54.6,67.2z"/>
		</g>
	</g>
	<g>
	</g>
	<g>
	</g>
	<g>
	</g>
	<g>
	</g>
	<g>
	</g>
	<g>
	</g>
	<g>
	</g>
	<g>
	</g>
	<g>
	</g>
	<g>
	</g>
	<g>
	</g>
	<g>
	</g>
	<g>
	</g>
	<g>
	</g>
	<g>
	</g>
</g>
</svg>
