<?xml version="1.0" encoding="utf-8"?>
<!-- Generator: Adobe Illustrator 21.1.0, SVG Export Plug-In . SVG Version: 6.00 Build 0)  -->
<svg version="1.1" id="Capa_1" xmlns="http://www.w3.org/2000/svg" xmlns:xlink="http://www.w3.org/1999/xlink" x="0px" y="0px"
	 viewBox="0 0 105.1 105.5" style="enable-background:new 0 0 105.1 105.5;" xml:space="preserve">
<style type="text/css">
	.st0{fill:#E7EBEE;}
</style>
<circle class="st0" cx="52.6" cy="52.9" r="52.6"/>
<g>
	<g>
		<g>
			<path d="M63.4,67.6c0.5-0.5,0.8-1.3,0.7-2c-0.4-6.3-3-12.3-7.5-16.7s-10.4-7.2-16.7-7.5c-0.7,0-1.5,0.2-2,0.7
				c-0.5,0.5-0.9,1.2-0.9,2v7.3c0,1.4,1.1,2.6,2.5,2.7c3,0.3,5.9,1.6,8.1,3.8c2.2,2.2,3.5,5.1,3.8,8.1c0.1,0.7,0.3,1.3,0.8,1.7
				c0.5,0.5,1.2,0.8,1.9,0.8l7.3,0C62.2,68.5,62.9,68.2,63.4,67.6z M54.1,65.8L54.1,65.8c-0.3-3.7-1.9-7.2-4.6-9.8
				c-2.6-2.6-6.1-4.3-9.8-4.6l0-7.3c5.6,0.3,11,2.7,15,6.7s6.4,9.3,6.7,15L54.1,65.8z"/>
		</g>
	</g>
	<g>
		<g>
			<path d="M44.1,67.1c0-1.5-0.6-3-1.7-4.1c-1.1-1.1-2.5-1.7-4.1-1.7c-3.2,0-5.7,2.6-5.7,5.7c0,1.6,0.6,3,1.7,4.1
				c1,1,2.5,1.7,4.1,1.7c1.5,0,3-0.6,4.1-1.7C43.5,70.1,44.1,68.6,44.1,67.1z M38.4,70.1c-1.7,0-3-1.4-3-3c0-1.7,1.4-3,3-3
				c0.8,0,1.6,0.3,2.1,0.9c0.6,0.6,0.9,1.3,0.9,2.1c0,0,0,0,0,0c0,0.8-0.3,1.6-0.9,2.1C39.9,69.8,39.2,70.1,38.4,70.1z"/>
		</g>
	</g>
	<g>
		<g>
			<path d="M84.3,65.7C83.5,41.5,64,22,39.8,21.2c-0.7,0-1.5,0.3-2,0.8c-0.5,0.5-0.8,1.2-0.8,2v7.3c0,1.5,1.2,2.7,2.6,2.7
				c8.4,0.3,16.2,3.8,22.2,9.7c5.9,5.9,9.4,13.8,9.7,22.2c0,0.7,0.3,1.4,0.8,1.8c0.5,0.5,1.2,0.8,1.9,0.8h7.3c0.7,0,1.4-0.3,2-0.8
				C84,67.1,84.3,66.4,84.3,65.7z M74.2,65.8c-0.3-9.1-4.1-17.6-10.5-24c-6.4-6.4-15-10.2-24-10.5l0-7.3
				C62.5,24.6,80.8,43,81.5,65.7l0,0L74.2,65.8z"/>
		</g>
	</g>
	<g>
	</g>
	<g>
	</g>
	<g>
	</g>
	<g>
	</g>
	<g>
	</g>
	<g>
	</g>
	<g>
	</g>
	<g>
	</g>
	<g>
	</g>
	<g>
	</g>
	<g>
	</g>
	<g>
	</g>
	<g>
	</g>
	<g>
	</g>
	<g>
	</g>
</g>
</svg>
