<?xml version="1.0" encoding="utf-8"?>
<!-- Generator: Adobe Illustrator 23.0.1, SVG Export Plug-In . SVG Version: 6.00 Build 0)  -->
<svg version="1.1" id="Capa_1" xmlns="http://www.w3.org/2000/svg" xmlns:xlink="http://www.w3.org/1999/xlink" x="0px" y="0px"
	 viewBox="0 0 612 612" style="enable-background:new 0 0 612 612;" xml:space="preserve">
<style type="text/css">
	.st0{fill:#999999;}
</style>
<g>
	<g>
		<g>
			<g>
				<path class="st0" d="M107.1,222.6h84.2v236.5c0,10.1,8.2,18.4,18.4,18.4h192.7c10.1,0,18.4-8.2,18.4-18.4V222.6h84.2
					c0,0,0,0,0,0c10.1,0,18.4-8.2,18.4-18.4c0-6.1-3-11.5-7.6-14.9l-198.2-158c-6.7-5.3-16.2-5.3-22.9,0L95.7,189.9
					c-6.1,4.9-8.5,13.1-5.9,20.4C92.3,217.7,99.3,222.6,107.1,222.6z M452.4,185.9h-50.1c-10.1,0-18.4,8.2-18.4,18.4v236.5H228
					V204.2c0-10.1-8.2-18.4-18.4-18.4h-50.1L306,69.2L452.4,185.9z"/>
				<path class="st0" d="M593.6,399.5c-10.1,0-18.4,8.2-18.4,18.4v130H36.7v-130c0-10.1-8.2-18.4-18.4-18.4S0,407.7,0,417.9v148.4
					c0,10.1,8.2,18.4,18.4,18.4h575.3c10.1,0,18.4-8.2,18.4-18.4V417.9C612,407.7,603.8,399.5,593.6,399.5z"/>
			</g>
		</g>
	</g>
</g>
</svg>
